{(1181) - L.gouloumes => (1366) - Le coteau,
 (1244) - Pages => (1380) - Pont des tabacs,
 (1177) - Actisud => (1263) - Pontlieue,
 (1038) - Chaumard => (1380) - Pont des tabacs,
 (1082) - Jacquard => (1147) - Gautrie,
 (1155) - Gue bernisson => (1091) - Cfa,
 (999) - St liboire => (1069) - Eperon,
 (1096) - Bellevue => (1000) - Lycee sud,
 (1141) - Galliere => (1069) - Eperon,
 (1261) - Jean moulin => (1263) - Pontlieue,
 (1303) - Kennedy => (1284) - Hopital,
 (1037) - Cimetiere => (1009) - Securite sociale,
 (1344) - Sapins => (1263) - Pontlieue,
 (1241) - Raterie => (1220) - Gares,
 (1191) - Florey => (1069) - Eperon,
 (1248) - Leclerc-fleurus => (1263) - Pontlieue,
 (1042) - Perche => (1009) - Securite sociale,
 (1169) - Cheverny => (1168) - Theodore monod,
 (1206) - Pelouse => (1263) - Pontlieue,
 (1064) - Ste catherine => (1168) - Theodore monod,
 (1158) - Renoncules => (1147) - Gautrie,
 (1311) - L'arche => (1001) - Eglise,
 (1022) - Etamines => (1069) - Eperon,
 (1013) - Zola => (1263) - Pontlieue,
 (1113) - Zin => (1001) - Eglise,
 (1088) - Family village => (1381) - Antares mmarena,
 (1268) - Equipement => (1237) - Renault,
 (1182) - Pinede => (1381) - Antares mmarena,
 (1055) - Basse lande => (1366) - Le coteau,
 (1228) - Sablons pyrenees => (1091) - Cfa,
 (1124) - Ifs => (1263) - Pontlieue,
 (1091) - Cfa => (1267) - Californie,
 (1142) - Marcel pagnol => (1168) - Theodore monod,
 (1171) - Montaigu => (1380) - Pont des tabacs,
 (1242) - Vendee => (1284) - Hopital,
 (1297) - Guetteloup => (1263) - Pontlieue,
 (1187) - Saint christophe => (1069) - Eperon,
 (1204) - Les landes => (1381) - Antares mmarena,
 (1308) - Lafayette => (1013) - Zola,
 (993) - Charles sauria => (1360) - Bourdonniere,
 (1151) - Beauvoir => (1185) - Universite,
 (1355) - Cite joly => (1263) - Pontlieue,
 (1322) - Croix de pierre => (1274) - Zamenhof,
 (1028) - Bretagne => (1284) - Hopital,
 (1131) - Deux ormeaux => (1167) - Cugnot,
 (1136) - Aerodrome => (1263) - Pontlieue,
 (1176) - Millet => (1087) - Grenoble,
 (1073) - Spoutnik => (1220) - Gares,
 (1196) - Carel mutualite => (1263) - Pontlieue,
 (1208) - Auvours => (1366) - Le coteau,
 (1231) - Lazare weiller => (1263) - Pontlieue,
 (1354) - Edf gdf => (1220) - Gares,
 (1277) - Oasis => (1263) - Pontlieue,
 (1114) - Guy bouriat => (1135) - Polucan,
 (1046) - M. carne => (1168) - Theodore monod,
 (1148) - Montagne => (1294) - Richepin,
 (1357) - Palmiers => (1069) - Eperon,
 (1358) - Charmes => (1185) - Universite,
 (1035) - Melies => (1185) - Universite,
 (1052) - Saint georges => (1380) - Pont des tabacs,
 (1336) - Chaoue => (1025) - Centre culturel,
 (1348) - Grand champ => (1360) - Bourdonniere,
 (1282) - J. cartier => (1350) - Petite croix,
 (1259) - Atlant.-sablons => (1255) - Espal,
 (1276) - Le luard => (1009) - Securite sociale,
 (1214) - A. combattants => (1381) - Antares mmarena,
 (1371) - Solitude => (1056) - Perdrix,
 (1089) - De gaulle => (998) - Republique,
 (1223) - Chateau d'eau => (1263) - Pontlieue,
 (1325) - College bollee => (1381) - Antares mmarena,
 (1119) - M. cerdan => (1274) - Zamenhof,
 (1066) - Cadran-epine => (1263) - Pontlieue,
 (1011) - Contrexville => (1000) - Lycee sud,
 (1300) - Cormier => (1381) - Antares mmarena,
 (1330) - Rue du port => (1263) - Pontlieue,
 (1045) - Route du lude => (1279) - Hotel de ville,
 (1384) - La rochelle => (1168) - Theodore monod,
 (1250) - Avenue nationale => (1279) - Hotel de ville,
 (1353) - Saffray => (1069) - Eperon,
 (1125) - Courard => (1369) - Rousseau,
 (1109) - St martin => (1091) - Cfa,
 (1260) - Escra => (1000) - Lycee sud,
 (1126) - Fresnellerie => (1314) - Glonnieres,
 (1198) - Nice => (1069) - Eperon,
 (1139) - Citroen => (1069) - Eperon,
 (1292) - S. de brazza => (1000) - Lycee sud,
 (1170) - Pasteur => (1284) - Hopital,
 (1058) - La fuie => (1086) - Bollee,
 (1053) - Polygone => (1167) - Cugnot,
 (1359) - Fontenelles => (1274) - Zamenhof,
 (1103) - Rue du loir => (1380) - Pont des tabacs,
 (1364) - Sables => (1271) - Copenhague,
 (1302) - Bon pasteur => (1069) - Eperon,
 (1380) - Pont des tabacs => (1220) - Gares,
 (1003) - Sarge => (1274) - Zamenhof,
 (1117) - Perrieres => (1284) - Hopital,
 (1061) - Gascogne => (1284) - Hopital,
 (1218) - Monier => (1147) - Gautrie,
 (1389) - Paillereau => (1241) - Raterie,
 (1310) - La paix => (1000) - Lycee sud,
 (1375) - Bobillot => (1167) - Cugnot,
 (1205) - Jean mace => (1167) - Cugnot,
 (1135) - Polucan => (1366) - Le coteau,
 (1287) - Massenet => (1025) - Centre culturel,
 (1074) - Cygnes => (1056) - Perdrix,
 (1221) - Les horizons => (1069) - Eperon,
 (1024) - Emile plet => (1381) - Antares mmarena,
 (1237) - Renault => (1220) - Gares,
 (1252) - J.prevert => (1366) - Le coteau,
 (1194) - Auchan => (1069) - Eperon,
 (1157) - Leon tolstoi => (1000) - Lycee sud,
 (1199) - Bouvet => (1168) - Theodore monod,
 (1275) - Haute venelle => (1263) - Pontlieue,
 (1138) - Washington => (1263) - Pontlieue,
 (1307) - Vauguyon => (1087) - Grenoble,
 (1295) - Chanzy => (1263) - Pontlieue,
 (1051) - Bouchardiere => (1381) - Antares mmarena,
 (1356) - Aigne => (1001) - Eglise,
 (1280) - Doree => (1274) - Zamenhof,
 (1343) - Raineries => (1314) - Glonnieres,
 (1367) - Flandres => (1284) - Hopital,
 (1279) - Hotel de ville => (1263) - Pontlieue,
 (995) - Bonnetable => (1274) - Zamenhof,
 (1349) - Bruyeres => (1087) - Grenoble,
 (1262) - Lefaucheux => (1220) - Gares,
 (1284) - Hopital => (1263) - Pontlieue,
 (1000) - Lycee sud => (1091) - Cfa,
 (1147) - Gautrie => (1263) - Pontlieue,
 (1318) - Lambert => (1056) - Perdrix,
 (1274) - Zamenhof => (1000) - Lycee sud,
 (1226) - Jules raimu => (1263) - Pontlieue,
 (1008) - Belle etoile => (1381) - Antares mmarena,
 (1381) - Antares mmarena => (1263) - Pontlieue,
 (1193) - Churchill => (1255) - Espal,
 (1144) - Cimetiere sud => (1314) - Glonnieres,
 (1363) - Saint exupery => (1001) - Eglise,
 (1229) - Berne => (1031) - Lausanne,
 (1296) - Champagne => (1366) - Le coteau,
 (1116) - Preau => (1263) - Pontlieue,
 (1317) - La vallee => (1279) - Hotel de ville,
 (1025) - Centre culturel => (1284) - Hopital,
 (1133) - Colonel queru => (1168) - Theodore monod,
 (1312) - Aubrac => (1091) - Cfa,
 (1382) - Papin => (1263) - Pontlieue,
 (1030) - Fromendiere => (1167) - Cugnot,
 (1017) - Van gogh => (1314) - Glonnieres,
 (1070) - La chesnaie => (1366) - Le coteau,
 (1005) - Allonnes => (1284) - Hopital,
 (1249) - Bignon => (1274) - Zamenhof,
 (1098) - Gymnase => (1284) - Hopital,
 (1115) - Pecheurs => (1220) - Gares,
 (1094) - Yzeux => (1056) - Perdrix,
 (1245) - Flore => (1091) - Cfa,
 (1233) - Le clos => (1380) - Pont des tabacs,
 (1264) - Th. edison => (1069) - Eperon,
 (1263) - Pontlieue => (1091) - Cfa,
 (1164) - Pivoines => (1009) - Securite sociale,
 (1283) - Barcelone => (1274) - Zamenhof,
 (1166) - Les verts => (1360) - Bourdonniere,
 (1289) - Grues rouges => (1069) - Eperon,
 (1352) - Batignolles => (1167) - Cugnot,
 (1068) - Diesel => (1091) - Cfa,
 (1266) - Antonniere => (1001) - Eglise,
 (1203) - Chasse royale => (1316) - La calandre,
 (1230) - Belvederes => (1381) - Antares mmarena,
 (1294) - Richepin => (1069) - Eperon,
 (1246) - Gambetta-muriers => (1263) - Pontlieue,
 (1267) - Californie => (1091) - Cfa,
 (1211) - Mutuel => (1014) - Comtes du maine,
 (1291) - Dunkerque => (1069) - Eperon,
 (1173) - Halles => (1263) - Pontlieue,
 (1335) - Campus-ribay => (1263) - Pontlieue,
 (1069) - Eperon => (1013) - Zola,
 (1110) - Marcel paul => (1087) - Grenoble,
 (1373) - Courbet => (1087) - Grenoble,
 (1201) - Despres => (1284) - Hopital,
 (1165) - Languedoc => (1284) - Hopital,
 (1392) - Bleuets => (1167) - Cugnot,
 (1056) - Perdrix => (1000) - Lycee sud,
 (1063) - Maine => (1009) - Securite sociale,
 (1010) - Champs de mars => (1263) - Pontlieue,
 (1334) - Le cadran => (1350) - Petite croix,
 (1315) - La milesse => (1001) - Eglise,
 (1374) - Terroirie => (1001) - Eglise,
 (1278) - Etang => (1147) - Gautrie,
 (1084) - Panhard => (1360) - Bourdonniere,
 (1341) - Folie => (1168) - Theodore monod,
 (1340) - Victor hugo => (1086) - Bollee,
 (1234) - Prud'homme => (1000) - Lycee sud,
 (1104) - Faraday => (1147) - Gautrie,
 (1048) - Sables d'or => (1220) - Gares,
 (1031) - Lausanne => (1069) - Eperon,
 (1062) - Pommiers => (1263) - Pontlieue,
 (1258) - J. souvenir => (1314) - Glonnieres,
 (1004) - Erpell => (1091) - Cfa,
 (1184) - La pointe => (1167) - Cugnot,
 (1365) - Palais congres => (1263) - Pontlieue,
 (1105) - Rouillon => (1185) - Universite,
 (1093) - Angeviniere => (1220) - Gares,
 (1269) - Le golf => (1274) - Zamenhof,
 (1128) - Gladiateurs => (1014) - Comtes du maine,
 (1009) - Securite sociale => (1091) - Cfa,
 (1047) - Chabrier => (1025) - Centre culturel,
 (1034) - Ch. de mars => (1167) - Cugnot,
 (1012) - Les pins => (1381) - Antares mmarena,
 (1271) - Copenhague => (1000) - Lycee sud,
 (1057) - Boussiniere => (1316) - La calandre,
 (1137) - Marivaux => (1000) - Lycee sud,
 (1095) - Beaumarchais => (1069) - Eperon,
 (1180) - George sand => (1009) - Securite sociale,
 (1216) - Arromanches => (1091) - Cfa,
 (1383) - Bourges => (1069) - Eperon,
 (1077) - G. apollinaire => (1000) - Lycee sud,
 (1118) - Cedres => (1381) - Antares mmarena,
 (1111) - Zi sud => (1147) - Gautrie,
 (1002) - Leon blum => (1091) - Cfa,
 (1390) - Breguet => (1220) - Gares,
 (1329) - Cerisiers => (1274) - Zamenhof,
 (1219) - Ile aux sports => (1255) - Espal,
 (1149) - Richet => (1069) - Eperon,
 (1366) - Le coteau => (1009) - Securite sociale,
 (1033) - Corneille => (1069) - Eperon,
 (1192) - Rembrandt => (1314) - Glonnieres,
 (1251) - Trange => (1001) - Eglise,
 (1200) - Moreau => (1069) - Eperon,
 (1071) - Rue de ballon => (1274) - Zamenhof,
 (1080) - Saint saturnin => (1001) - Eglise,
 (1130) - Rue de ruaudin => (1000) - Lycee sud,
 (1319) - Durand-vaillant => (1263) - Pontlieue,
 (1378) - Bale => (1069) - Eperon,
 (1299) - T. bernard => (1000) - Lycee sud,
 (1185) - Universite => (1263) - Pontlieue,
 (1377) - Bobet => (1167) - Cugnot,
 (1072) - Emile arrouet => (1381) - Antares mmarena,
 (1387) - Val morand => (1001) - Eglise,
 (1075) - Cim. st georges => (1380) - Pont des tabacs,
 (1143) - Saint aubin => (1001) - Eglise,
 (1345) - Acacias => (1380) - Pont des tabacs,
 (1100) - P.l. jacques => (1271) - Copenhague,
 (1281) - G.brassens => (1366) - Le coteau,
 (1060) - Becquerel => (1147) - Gautrie,
 (1127) - Nelson mandela => (1220) - Gares,
 (1293) - Debussy => (1025) - Centre culturel,
 (1081) - Foucaudiere => (1237) - Renault,
 (1036) - Richedoue => (1220) - Gares,
 (1314) - Glonnieres => (1319) - Durand-vaillant,
 (1083) - L' oree du bois => (1381) - Antares mmarena,
 (996) - Archives dep => (1263) - Pontlieue,
 (1175) - Marne => (1091) - Cfa,
 (1021) - Setram => (1237) - Renault,
 (1224) - Logis de huisne => (1009) - Securite sociale,
 (1305) - Maroc => (1263) - Pontlieue,
 (1190) - Moulin l'eveque => (1069) - Eperon,
 (1239) - Bouquetiere => (1274) - Zamenhof,
 (1313) - Novaxis => (1220) - Gares,
 (1032) - David d'angers => (1314) - Glonnieres,
 (1327) - Vaugauthier => (1009) - Securite sociale,
 (1140) - Saint martin => (1255) - Espal,
 (1146) - Montsaulnier => (1069) - Eperon,
 (1247) - Berardiere => (1241) - Raterie,
 (1107) - Bessemer => (1237) - Renault,
 (1215) - Jacobins => (1013) - Zola,
 (1027) - Le marin => (1284) - Hopital,
 (1049) - Delahaye => (1360) - Bourdonniere,
 (1086) - Bollee => (1091) - Cfa,
 (1099) - Beauregard => (1069) - Eperon,
 (1350) - Petite croix => (1001) - Eglise,
 (1092) - Liberation => (1220) - Gares,
 (1041) - Mariette => (1091) - Cfa,
 (1331) - Calberson => (1237) - Renault,
 (1129) - Carcassonne => (1000) - Lycee sud,
 (1370) - Ruaudin => (1381) - Antares mmarena,
 (1029) - Bouttie => (1069) - Eperon,
 (1240) - Calvaire => (1274) - Zamenhof,
 (1209) - Ste helene => (1091) - Cfa,
 (1120) - Muriers => (1168) - Theodore monod,
 (1054) - Platanes => (1000) - Lycee sud,
 (1321) - Tilleuls => (1381) - Antares mmarena,
 (1326) - Yvre l'eveque => (1009) - Securite sociale,
 (1337) - Viaducs => (1013) - Zola,
 (1150) - Puits fendu => (1185) - Universite,
 (1183) - Mulsanne => (1381) - Antares mmarena,
 (998) - Republique => (1013) - Zola,
 (1338) - Saint lazare => (1380) - Pont des tabacs,
 (1290) - Narcisses => (1009) - Securite sociale,
 (1079) - St.georges => (1241) - Raterie,
 (1189) - Lycee a.malraux => (1284) - Hopital,
 (1156) - Val de vray => (1001) - Eglise,
 (1391) - Les palis => (1069) - Eperon,
 (1339) - Goya => (1263) - Pontlieue,
 (1050) - Pipeche => (1069) - Eperon,
 (1270) - Suisse => (1091) - Cfa,
 (1132) - Primevere => (1185) - Universite,
 (1019) - Mendes france => (1128) - Gladiateurs,
 (1065) - Miroir => (1263) - Pontlieue,
 (1301) - Jaures-pavillon => (1263) - Pontlieue,
 (1272) - Etoile => (1014) - Comtes du maine,
 (1253) - Villaret => (1056) - Perdrix,
 (1386) - Paul cezanne => (1381) - Antares mmarena,
 (1076) - Clairefontaine => (1056) - Perdrix,
 (1235) - Residence ribay => (1168) - Theodore monod,
 (1220) - Gares => (1013) - Zola,
 (1085) - Pierre piffault => (1237) - Renault,
 (1152) - Delageniere => (1069) - Eperon,
 (1101) - Leo delibes => (1220) - Gares,
 (1020) - Saint julien => (1147) - Gautrie,
 (1016) - Flora tristan => (1381) - Antares mmarena,
 (1172) - Agadir => (1274) - Zamenhof,
 (1254) - Le pressoir => (1381) - Antares mmarena,
 (1188) - Foucault => (1069) - Eperon,
 (1256) - Bigarreaux => (1167) - Cugnot,
 (1026) - Le verger => (1000) - Lycee sud,
 (1043) - Tourellerie => (1185) - Universite,
 (1044) - Cimetiere ouest => (1316) - La calandre,
 (1179) - Nauguibert => (1263) - Pontlieue,
 (1178) - Falconet => (1314) - Glonnieres,
 (1087) - Grenoble => (1000) - Lycee sud,
 (1202) - Bara => (1263) - Pontlieue,
 (1342) - Pave => (1069) - Eperon,
 (1159) - Marcel letang => (1381) - Antares mmarena,
 (1309) - Prefecture => (1263) - Pontlieue,
 (1078) - College pasteur => (1009) - Securite sociale,
 (1369) - Rousseau => (1263) - Pontlieue,
 (1316) - La calandre => (1069) - Eperon,
 (1222) - Bel air => (1314) - Glonnieres,
 (1225) - Blanchisserie => (1069) - Eperon,
 (1333) - Vert galant => (1314) - Glonnieres,
 (1328) - Marbot => (1168) - Theodore monod,
 (1174) - Europe => (1000) - Lycee sud,
 (1332) - Kaboul => (1274) - Zamenhof,
 (1255) - Espal => (1091) - Cfa,
 (1023) - Delage => (1360) - Bourdonniere,
 (1207) - Mediatheque => (1263) - Pontlieue,
 (1145) - Epau-g.bernisson => (1255) - Espal,
 (1362) - Bener => (1009) - Securite sociale,
 (1379) - Yourcenar => (1263) - Pontlieue,
 (1217) - Gazonfier => (1000) - Lycee sud,
 (1162) - A. france => (1220) - Gares,
 (1106) - Oseraie => (1185) - Universite,
 (1154) - Abattoirs => (1147) - Gautrie,
 (1167) - Cugnot => (1091) - Cfa,
 (1257) - Collectivite => (1263) - Pontlieue,
 (1361) - Jean cocteau => (1000) - Lycee sud,
 (1014) - Comtes du maine => (1091) - Cfa,
 (1195) - Bardet => (1014) - Comtes du maine,
 (1227) - Mairie => (1069) - Eperon,
 (1210) - Vieux colombier => (1380) - Pont des tabacs,
 (1090) - Capucines => (1274) - Zamenhof,
 (1388) - Arche nature => (1091) - Cfa,
 (1123) - Closerie => (1069) - Eperon,
 (1007) - Ronceray => (1263) - Pontlieue,
 (1108) - Gremillon => (1168) - Theodore monod,
 (1273) - Vaujoubert => (1185) - Universite,
 (1163) - Valence => (1056) - Perdrix,
 (1134) - A. de vigny => (1000) - Lycee sud,
 (1015) - Centre signoret => (1381) - Antares mmarena,
 (1324) - Epine => (1168) - Theodore monod,
 (1298) - Beuruay => (1279) - Hotel de ville,
 (1161) - Berry => (1263) - Pontlieue,
 (1320) - Folleray => (1380) - Pont des tabacs,
 (1102) - Funay => (1091) - Cfa,
 (1285) - Croix de braye => (1279) - Hotel de ville,
 (1306) - Les sources => (1087) - Grenoble,
 (1040) - Nogues => (1263) - Pontlieue,
 (1018) - Chene vert => (1069) - Eperon,
 (1097) - Hendaye => (1069) - Eperon,
 (1212) - Cochereaux => (1203) - Chasse royale,
 (1122) - Banjan => (1069) - Eperon,
 (1368) - L. guet => (1000) - Lycee sud,
 (994) - Gallouedec => (1057) - Boussiniere,
 (1153) - Jardin plantes => (1014) - Comtes du maine,
 (1376) - Yokel => (1000) - Lycee sud,
 (1288) - Freres renault => (1360) - Bourdonniere,
 (1360) - Bourdonniere => (1069) - Eperon,
 (1121) - Tavano => (1380) - Pont des tabacs,
 (1059) - Ormeau => (1185) - Universite,
 (1323) - Huchepie => (1263) - Pontlieue,
 (1039) - Fusains => (1167) - Cugnot,
 (1243) - St michel => (1215) - Jacobins,
 (1238) - Colonel raynal => (1380) - Pont des tabacs,
 (1006) - Maillets-banjan => (1274) - Zamenhof,
 (1304) - D. pironi => (1003) - Sarge,
 (1186) - Charbonniere => (1000) - Lycee sud,
 (1372) - La baule => (1069) - Eperon,
 (1351) - Auric => (1185) - Universite,
 (1265) - Baudelaire => (1069) - Eperon,
 (1160) - Saint joseph => (1241) - Raterie,
 (1232) - Racine => (1069) - Eperon,
 (1347) - Hermitage => (1381) - Antares mmarena,
 (1286) - J.m. gaudre => (1167) - Cugnot,
 (1168) - Theodore monod => (1263) - Pontlieue,
 (1385) - Parc manceau => (1360) - Bourdonniere,
 (1346) - St vincent => (1069) - Eperon,
 (1213) - Colleges => (1263) - Pontlieue,
 (1112) - Surcouf => (1350) - Petite croix,
 (1001) - Eglise => (1000) - Lycee sud,
 (1067) - Feydeau => (1065) - Miroir,
 (997) - Jules vedrines => (1263) - Pontlieue}
